#VRML V2.0 utf8


Group {
  children 
    Group {
      children [ 
        Group {
          children 
            Transform {
              translation 0 0.19999999 0
              rotation 0 0 1  0
              scale 1 1 1
              scaleOrientation 0 0 1  0
              children 
                Transform {
                  translation 0.00029063199 -0.1956201 0.001319528
                  rotation -0.37796432 0.65465385 0.65465355  2.4188585
                  scale 0.99999994 1.0000001 1
                  scaleOrientation -6.8131581e-006 8.1938606e-007 -1.0000001  0.78539801
                  children 
                    Shape {
                      appearance 
                      Appearance {
                        material 
                        Material {
                          diffuseColor 0.63686252 0.65882319 0.74980402

                        }

                      }
                      geometry 
                      IndexedFaceSet {
                        coord 
                        Coordinate {
                          point [ -0.004761517 -0.005424499 0.002151906,
                              -0.003670752 -0.0060349102 -0.00089422398,
                              -0.0035750859 -0.005818665 0.0046026111,
                              -0.0025274151 -0.0067933789 0.0052149892,
                              -0.0035408731 -0.0035133359 0.0031487341,
                              -0.0033526421 -0.003640115 0.000182274,
                              -0.0029190769 -0.0034002061 0.00028898701,
                              -0.002831816 -0.0067078471 0.00094240502,
                              -0.0028514259 -0.0034642811 0.00336939,
                              -0.00115925 -0.0075278869 -0.001563489,
                              -0.001738011 -0.0045676231 0.0051690931,
                              -0.0016462801 -0.0046141739 -0.001514315,
                              -0.0019796491 -0.0072002411 0.0033287399,
                              -0.0021605489 -0.0038174391 0.002217829,
                              -0.001859188 -0.004000782 0.00057716499,
                              -0.001734137 -0.0040650959 0.003244817,
                              -0.001681566 -0.0047163959 0.0027607081,
                              -0.001453995 -0.0042704931 -0.001003444,
                              -0.00036029899 -0.0048579569 0.0039843912,
                              -0.00082945998 -0.0052078962 0.00037421001,
                              -0.00061571598 -0.0079874992 0.001283347,
                              -0.001143991 -0.004444479 -0.000131501,
                              -0.00059023901 -0.004753768 -0.00030466201,
                              -0.001109957 -0.0044685001 -0.000194501,
                              -0.001109957 -0.0044685001 -0.000194501,
                              -0.001109957 -0.0044685001 -0.000194501,
                              -0.001095235 -0.0044788709 -0.00019390001,
                              0.00034954201 -0.0083549609 0.0044631362,
                              -0.000936508 -0.0045700069 -0.00026369101,
                              -0.000799492 -0.0046480289 -0.00030182101,
                              -0.000206756 -0.0050834408 0.0052441349,
                              0.00022631 -0.0053010578 -0.001432895,
                              0.00053085398 -0.008437275 -0.00039847201,
                              0.00053421501 -0.0059956312 0.00241959,
                              0.00029200301 -0.0052785268 0.0038974879,
                              0.00029200301 -0.0052785268 0.0038974879,
                              0.00029200301 -0.0052785268 0.0038974879,
                              0.00078058202 -0.0055259462 0.003409147,
                              0.000330001 -0.0052955151 0.003834486,
                              0.00066765002 -0.0054479241 0.00017422999,
                              0.00049300498 -0.0053945179 0.004771471,
                              0.001267731 -0.0089036822 0.001551568,
                              0.0015482299 -0.0064647789 -0.00069867301,
                              0.001720547 -0.006292521 0.0042375922,
                              0.00105226 -0.0057170978 0.0044676061,
                              0.000937998 -0.0056515331 0.0034074781,
                              0.000937998 -0.0056515331 0.0034074781,
                              0.000937998 -0.0056515331 0.0034074781,
                              0.00094799697 -0.0056515331 0.0033384559,
                              0.0010452271 -0.0057067871 0.0032653799,
                              0.0014086961 -0.0058826199 0.001503407,
                              0.001161575 -0.005779027 0.003098964,
                              0.001194536 -0.0058019748 0.0029708741,
                              0.001439988 -0.0059365029 0.0021784899,
                              0.001462996 -0.005954504 0.0022634859,
                              0.001462996 -0.005954504 0.0022634859,
                              0.001462996 -0.005954504 0.0022634859,
                              0.001515984 -0.005985498 0.004012465,
                              0.0025249119 -0.006687819 0.001502335,
                              0.0022220011 -0.006392478 0.002467453,
                              0.0027874699 0.004655838 0.001883029,
                              0.0032948251 0.0040354128 0.000247705,
                              0.0035082691 0.0039256811 0.0036452999,
                              0.0044485922 0.003885447 0.0035957091,
                              0.004648447 0.003651499 -0.00010397,
                              0.0053097601 0.002893924 0.003665149,
                              0.0061886311 0.0023762579 0.001347005,
                              0.0060688849 0.0029408331 0.001892983,
                              -0.0046746731 -0.005465209 -0.0074850321,
                              -0.004276156 -0.0057690139 -0.01003152,
                              -0.003037154 -0.0061416621 -0.0048519368,
                              -0.0028714531 -0.006694614 -0.0050944081,
                              -0.003278791 -0.005991756 -0.01117753,
                              -0.003372788 -0.0033128259 -0.0090524554,
                              -0.003163158 -0.003427505 -0.0066568251,
                              -0.0030021069 -0.0066094389 -0.0075802798,
                              -0.002280294 -0.0039293761 -0.01083564,
                              -0.001451253 -0.0043637152 -0.004939734,
                              -0.001638472 -0.0073968172 -0.0096257916,
                              -0.00073096203 -0.0077301851 -0.01150995,
                              -0.0020968909 -0.0038715 -0.0073165288,
                              -0.00195235 -0.0039362898 -0.0091891279,
                              -0.001681566 -0.0047163959 -0.0072392221,
                              -0.001173496 -0.0043444028 -0.0099999905,
                              -0.000330865 -0.0053758021 -0.01175034,
                              -0.001100778 -0.0044323802 -0.0062550898,
                              -0.001453995 -0.0042704931 -0.01100349,
                              -0.00025853101 -0.005426764 -0.004592895,
                              -0.00082945998 -0.0052078962 -0.009625732,
                              -0.00078619801 -0.007889091 -0.0072394009,
                              0.00056278298 -0.0054279561 -0.01128417,
                              -0.001143991 -0.004444479 -0.01013147,
                              -0.001109957 -0.0044685001 -0.01019448,
                              -0.001109957 -0.0044685001 -0.01019448,
                              -0.001109957 -0.0044685001 -0.01019448,
                              -0.000162793 -0.0080807796 -0.0051666489,
                              -0.00092800002 -0.0045744772 -0.01026546,
                              -0.000893116 -0.0046036239 -0.01027697,
                              -0.001053571 -0.0045050378 -0.01023346,
                              -0.00020742499 -0.0049308529 -0.0060869451,
                              0.00020247301 -0.0051874509 -0.01011931,
                              0.00096640398 -0.0087320805 -0.0096315742,
                              0.00053421501 -0.0059956312 -0.007580339,
                              0.00029200301 -0.0052785268 -0.0061024418,
                              0.00029200301 -0.0052785268 -0.0061024418,
                              0.00029200301 -0.0052785268 -0.0061024418,
                              0.00080447597 -0.005534946 -0.006588459,
                              0.000330001 -0.0052955151 -0.0061654439,
                              0.00049300498 -0.0053945179 -0.0052284589,
                              0.001302242 -0.0058128829 -0.008985877,
                              0.001205384 -0.0088806152 -0.0073543778,
                              0.001694262 -0.0062068701 -0.0058009019,
                              0.000937998 -0.0056515331 -0.0065924521,
                              0.000937998 -0.0056515331 -0.0065924521,
                              0.000937998 -0.0056515331 -0.0065924521,
                              0.00094799697 -0.0056515331 -0.0066614738,
                              0.0011599649 -0.0057795038 -0.0068994761,
                              0.001317858 -0.0058782692 -0.0071880808,
                              0.001142978 -0.0057755699 -0.0068891039,
                              0.001439988 -0.0059365029 -0.0078215003,
                              0.001462996 -0.005954504 -0.007736444,
                              0.001462996 -0.005954504 -0.007736444,
                              0.001462996 -0.005954504 -0.007736444,
                              0.001515984 -0.005985498 -0.0059874649,
                              0.002077579 -0.0063989158 -0.01003772,
                              0.0025249119 -0.0070240488 -0.0081357351,
                              0.0022220011 -0.006392478 -0.0075324769,
                              0.0025500651 0.0044778581 -0.0081065893,
                              0.0032679429 0.004463851 -0.0093860617,
                              0.0035733581 0.004264771 -0.0066266051,
                              0.0046474328 0.0032746191 -0.01020318,
                              0.0046440358 0.0032749169 -0.0060912371,
                              0.005499362 0.003288269 -0.0095897308,
                              0.005801558 0.002988576 -0.0069049001,
                              0.0061178799 0.002416014 -0.0088136792,
                              -0.036451161 0.01269876 -0.0025761719,
                              -0.036365502 0.01284718 0.0062997341,
                              -0.032915048 0.0144304 -0.0026484721,
                              -0.033074021 0.0133931 -0.0011484619,
                              -0.033034138 0.01324433 0.00485146,
                              -0.033074021 0.0133931 0.00635147,
                              -0.032075219 0.01211965 -0.0026484721,
                              -0.029886121 0.01990407 -0.0026484721,
                              -0.02958226 0.02020531 -0.0011484619,
                              -0.029886059 0.019904129 0.00485146,
                              -0.029789031 0.019994911 0.00635147,
                              -0.02993446 0.023986749 -0.002596735,
                              -0.029773951 0.024264749 0.006261169,
                              -0.02757447 0.02074372 -0.0026484721,
                              -0.027574411 0.020743661 0.00485146,
                              -0.0274291 0.02072352 0.00635147,
                              -0.02716022 0.02063494 -0.0011484619,
                              -0.01155841 0.00097119698 -0.0026484721,
                              -0.01170718 0.00093131699 -0.0011484619,
                              -0.01155841 0.00097119698 0.00485146,
                              -0.01170718 0.000931316 0.00635147,
                              -0.01059043 -0.002690553 -0.01213526,
                              -0.01057881 -0.0024894469 -0.0025500651,
                              -0.0106433 -0.0026012061 0.006184041,
                              -0.0072856541 0.0085901609 -0.0026484721,
                              -0.007245779 0.0084412694 -0.0011484619,
                              -0.0072856541 0.0085901609 0.00485146,
                              -0.007245779 0.0084412694 0.00635147,
                              -0.0054189558 -0.0056766272 -0.0068679452,
                              -0.0055024019 -0.005628943 0.001189351,
                              -0.0048900242 -0.0059817429 -0.01061338,
                              -0.004761993 -0.0060557718 0.0045043821,
                              -0.003891587 -0.0065583582 -0.001672387,
                              -0.003496408 -0.006786346 -0.0044582481,
                              -0.003713011 0.0094037047 -0.002539098,
                              -0.003727793 0.0093772998 0.0062457318,
                              -0.0040889969 -0.001247525 -0.01264846,
                              -0.0040889969 -0.001247525 0.00635147,
                              -0.0039872518 -0.0028077359 -0.00787568,
                              -0.0038658381 -0.00287795 0.00097114901,
                              -0.0032899971 -0.0032106631 0.0043165078,
                              -0.0036106701 0.0094453692 -0.01207435,
                              -0.00243169 -0.003706336 -0.01164501,
                              -0.0012454391 -0.0080859661 -0.01233607,
                              -0.0024191141 -0.0074082608 0.0058698049,
                              -0.00276786 -0.003512084 -0.0051565762,
                              -0.001822829 -0.0040576449 -0.0020230999,
                              -0.0023958681 -0.0037263031 -0.007301867,
                              -0.0023400779 -0.0037584901 0.0030127759,
                              -0.0016561151 -0.004153728 -0.0099858642,
                              -0.0016561151 -0.004153728 1.41035e-005,
                              8.0153797e-005 -0.0088509908 -0.0045391321,
                              -0.00094129803 -0.0082613816 -0.0020453329,
                              -0.001721918 -0.0026146171 -0.0077919359,
                              -0.001800954 -0.0025691979 0.000978317,
                              -0.00093430298 -0.0030694001 -0.01018303,
                              -0.001589 0.003082454 -0.01264846,
                              -0.001589 0.003082454 0.00635147,
                              -0.00034134701 -0.0049129119 -0.0040176511,
                              -0.00034134599 -0.0049129119 0.0059822788,
                              -0.00059214799 -0.003266155 -0.0059666629,
                              -0.00059215998 -0.003266155 0.004033267,
                              0.00074962399 -0.009237349 0.0047097201,
                              0.00019870199 -0.0052245851 -0.005806088,
                              0.00042455699 -0.005355 0.004033267,
                              0.00026657199 -0.0052633882 -0.01034849,
                              0.00026656699 -0.0052633882 -0.00034852399,
                              0.0018321869 -0.006167769 -0.01155704,
                              0.001099109 -0.0042438498 -0.00038423701,
                              0.002056896 -0.0062975278 -0.0012422201,
                              0.001279592 -0.0095435381 0.00020150701,
                              0.001488149 -0.0044680228 -0.0099858036,
                              0.001490235 -0.0096654892 -0.009050726,
                              0.0021717539 -0.0048632021 -0.0069869752,
                              0.002171933 -0.0048629642 0.003012955,
                              0.001645982 -0.0060600038 -0.0083890548,
                              0.001645982 -0.0060600038 0.001610875,
                              0.001576244 0.001254558 -0.0093837967,
                              0.001576304 0.001254677 0.00061617501,
                              0.0016167749 0.001231491 -0.0070716138,
                              0.001857519 0.001092314 0.0033016801,
                              0.002988159 -0.006835341 -0.0064381361,
                              0.002988159 -0.006835341 0.0035617941,
                              0.0023210039 -0.01014548 -0.01264846,
                              0.0023210039 -0.01014548 0.00635147,
                              0.003787755 -2.23143e-005 -0.0067058201,
                              0.0042822361 -0.0061624642 -0.01264858,
                              0.0043862462 -0.0062893028 0.00635147,
                              0.003754436 -2.70549e-006 -0.0094175925,
                              0.0037545559 -2.4887299e-006 0.00058240001,
                              0.0039970269 -0.00014242499 0.0028715129,
                              0.003478169 0.0053527951 -0.0084531298,
                              0.0040546651 0.0050199619 0.00031065301,
                              0.003798902 0.0051674838 0.002826333,
                              0.0043809409 0.0048318501 -0.0066158171,
                              0.0050515528 0.0044445992 -0.0098732114,
                              0.0053198328 0.0042891498 0.0035353301,
                              0.0070154071 -0.001736462 -0.01264852,
                              0.0068605542 -0.001707911 0.00635147,
                              0.0060040951 0.0038947461 -0.0068791499,
                              0.0065345159 0.0035881989 0.0014541741,
                              0.0063610072 0.003688335 -0.0087342262,
                              0.0093209743 0.00197947 -0.01264846,
                              0.0093209743 0.00197947 0.00635147,
                              -0.001521646 -0.0027301901 -0.0087642074,
                              -0.001584708 -0.0026939509 0.0025441051,
                              -0.00065873098 -0.0032284849 -0.0061684251,
                              -0.00037256899 -0.003393292 -0.000404858,
                              -7.7713303e-005 -0.003563761 -0.01030194,
                              0.00085443602 -0.004101932 0.0041077728,
                              0.001448869 -0.0044453139 -0.0064665671,
                              0.00098168501 0.00159794 -0.0086531043,
                              0.00091193599 0.0016379351 0.0024060011,
                              0.0019927621 -0.0047593112 -0.0091631413,
                              0.0021273489 0.00093656499 -0.005892097,
                              0.001841306 0.001101553 -0.00012855401,
                              0.0020835991 0.00096165901 -0.01019734,
                              0.0020583861 -0.0047961469 0.001149237,
                              0.0024222729 0.00076612103 0.004005014,
                              0.003948926 -0.000115333 -0.0098303547,
                              0.003948926 -0.000115299 0.000169591,
                              0.0044927588 -0.00042931701 0.002866148,
                              0.004558444 -0.00046618099 -0.007446229,
                              -0.032944079 0.01430547 0.00485146,
                              -0.032763179 0.01496493 0.0068514938,
                              -0.032465331 0.01251906 0.0068514938,
                              -0.031978659 0.01203793 0.00485146,
                              -0.029481759 0.020324759 0.00485146,
                              -0.0294879 0.020292809 0.0068514938,
                              -0.02702981 0.020577131 0.00485146,
                              -0.027045481 0.02059388 0.0068514938,
                              -0.01307886 0.0011826149 0.00485146,
                              -0.01259833 0.0010364651 0.0068514938,
                              -0.01066434 0.001675605 0.00485146,
                              -0.01034855 0.002046942 0.0068514938,
                              -0.0083361864 0.0097920895 0.00485146,
                              -0.0083585968 0.0097972155 0.0068514938,
                              -0.0073514581 0.007548511 0.0068514938,
                              -0.0073760739 0.0075274101 0.00485146,
                              -0.032944079 0.01430547 -0.0031484959,
                              -0.032911059 0.01451921 -0.0011484619,
                              -0.032130361 0.01218211 -0.0011484619,
                              -0.031978719 0.01203793 -0.0031484959,
                              -0.029481759 0.020324759 -0.0031484959,
                              -0.0294879 0.020292809 -0.0011484619,
                              -0.02702981 0.020577131 -0.0031484959,
                              -0.027045481 0.02059388 -0.0011484619,
                              -0.01262038 0.001061201 -0.0031484959,
                              -0.01305973 0.001162648 -0.0011484619,
                              -0.01065802 0.00170505 -0.0011484619,
                              -0.01035308 0.002025485 -0.0031484959,
                              -0.0081600538 0.0096434345 -0.0031484959,
                              -0.0081860423 0.0096489778 -0.0011484619,
                              -0.0074310298 0.0072951908 -0.0031484959,
                              -0.0074087381 0.0073151579 -0.0011484619 ]

                        }
                        normal 
                        Normal {
                          vector [  ]

                        }
                        coordIndex [ 12, 33, 20, -1, 20, 33, 19, -1,
                            12, 16, 33, -1, 20, 19, 7, -1,
                            7, 16, 12, -1, 19, 33, 16, -1,
                            7, 19, 16, -1, 9, 20, 7, -1,
                            1, 9, 7, -1, 0, 1, 7, -1,
                            0, 7, 12, -1, 41, 27, 20, -1,
                            20, 27, 12, -1, 9, 32, 20, -1,
                            41, 20, 32, -1, 0, 12, 3, -1,
                            3, 12, 27, -1, 2, 0, 3, -1,
                            31, 42, 9, -1, 9, 42, 32, -1,
                            32, 42, 41, -1, 42, 58, 41, -1,
                            41, 58, 27, -1, 58, 43, 27, -1,
                            43, 30, 27, -1, 27, 30, 3, -1,
                            30, 10, 3, -1, 3, 10, 2, -1,
                            10, 4, 2, -1, 2, 4, 0, -1,
                            0, 4, 5, -1, 0, 5, 1, -1,
                            5, 11, 1, -1, 1, 11, 9, -1,
                            9, 11, 31, -1, 40, 30, 44, -1,
                            30, 43, 44, -1, 44, 43, 57, -1,
                            43, 58, 59, -1, 58, 42, 31, -1,
                            31, 11, 17, -1, 17, 11, 6, -1,
                            11, 5, 6, -1, 4, 6, 5, -1,
                            6, 4, 8, -1, 4, 10, 8, -1,
                            8, 10, 30, -1, 14, 6, 13, -1,
                            31, 28, 29, -1, 8, 13, 6, -1,
                            50, 58, 39, -1, 18, 8, 30, -1,
                            6, 14, 17, -1, 15, 8, 18, -1,
                            14, 23, 17, -1, 17, 23, 24, -1,
                            17, 24, 25, -1, 25, 26, 17, -1,
                            17, 26, 31, -1, 31, 26, 28, -1,
                            31, 29, 22, -1, 8, 15, 13, -1,
                            51, 43, 52, -1, 52, 43, 59, -1,
                            18, 30, 40, -1, 22, 39, 31, -1,
                            31, 39, 58, -1, 51, 49, 43, -1,
                            43, 49, 57, -1, 57, 37, 44, -1,
                            55, 54, 59, -1, 58, 50, 59, -1,
                            59, 50, 56, -1, 59, 56, 55, -1,
                            54, 52, 59, -1, 35, 34, 40, -1,
                            44, 37, 40, -1, 40, 37, 36, -1,
                            40, 36, 35, -1, 34, 18, 40, -1,
                            49, 47, 57, -1, 57, 47, 46, -1,
                            57, 46, 45, -1, 45, 37, 57, -1,
                            67, 60, 63, -1, 60, 67, 64, -1,
                            23, 14, 21, -1, 26, 25, 21, -1,
                            21, 25, 24, -1, 21, 24, 23, -1,
                            28, 26, 22, -1, 56, 50, 53, -1,
                            52, 54, 53, -1, 53, 54, 55, -1,
                            53, 55, 56, -1, 47, 49, 48, -1,
                            37, 45, 48, -1, 48, 45, 46, -1,
                            48, 46, 47, -1, 36, 37, 38, -1,
                            18, 34, 38, -1, 38, 34, 35, -1,
                            38, 35, 36, -1, 22, 26, 21, -1,
                            22, 21, 14, -1, 37, 18, 38, -1,
                            37, 48, 52, -1, 52, 48, 49, -1,
                            52, 53, 50, -1, 62, 63, 60, -1,
                            61, 60, 64, -1, 66, 64, 67, -1,
                            66, 67, 65, -1, 65, 67, 63, -1,
                            65, 63, 62, -1, 64, 39, 22, -1,
                            39, 64, 66, -1, 66, 50, 39, -1,
                            50, 66, 52, -1, 65, 52, 66, -1,
                            65, 37, 52, -1, 65, 18, 37, -1,
                            18, 65, 62, -1, 62, 15, 18, -1,
                            15, 62, 60, -1, 60, 13, 15, -1,
                            60, 14, 13, -1, 14, 60, 61, -1,
                            61, 22, 14, -1, 64, 22, 61, -1,
                            89, 102, 78, -1, 78, 102, 88, -1,
                            75, 82, 89, -1, 89, 82, 102, -1,
                            88, 102, 82, -1, 78, 88, 75, -1,
                            75, 88, 82, -1, 79, 101, 78, -1,
                            95, 89, 110, -1, 110, 89, 78, -1,
                            110, 78, 101, -1, 68, 75, 71, -1,
                            79, 78, 69, -1, 69, 78, 75, -1,
                            69, 75, 68, -1, 71, 75, 89, -1,
                            71, 89, 95, -1, 72, 79, 69, -1,
                            70, 68, 71, -1, 70, 71, 95, -1,
                            84, 124, 79, -1, 79, 124, 101, -1,
                            124, 125, 101, -1, 101, 125, 110, -1,
                            125, 111, 110, -1, 110, 111, 95, -1,
                            95, 111, 87, -1, 95, 87, 70, -1,
                            87, 77, 70, -1, 77, 74, 70, -1,
                            70, 74, 68, -1, 73, 68, 74, -1,
                            68, 73, 69, -1, 69, 73, 72, -1,
                            72, 73, 76, -1, 76, 84, 72, -1,
                            72, 84, 79, -1, 77, 87, 108, -1,
                            108, 87, 111, -1, 111, 125, 126, -1,
                            126, 125, 124, -1, 124, 84, 90, -1,
                            90, 84, 86, -1, 84, 76, 86, -1,
                            98, 96, 90, -1, 73, 81, 76, -1,
                            90, 96, 97, -1, 73, 80, 81, -1,
                            74, 80, 73, -1, 76, 81, 86, -1,
                            99, 85, 77, -1, 85, 74, 77, -1,
                            100, 90, 97, -1, 81, 92, 86, -1,
                            86, 92, 93, -1, 86, 93, 94, -1,
                            94, 98, 86, -1, 86, 98, 90, -1,
                            85, 80, 74, -1, 90, 109, 124, -1,
                            117, 111, 126, -1, 99, 77, 108, -1,
                            116, 111, 117, -1, 116, 118, 111, -1,
                            111, 118, 123, -1, 123, 106, 111, -1,
                            121, 120, 126, -1, 124, 109, 126, -1,
                            126, 109, 122, -1, 126, 122, 121, -1,
                            120, 117, 126, -1, 104, 103, 108, -1,
                            111, 106, 108, -1, 108, 106, 105, -1,
                            108, 105, 104, -1, 103, 99, 108, -1,
                            90, 100, 109, -1, 118, 114, 123, -1,
                            123, 114, 113, -1, 123, 113, 112, -1,
                            112, 106, 123, -1, 132, 128, 133, -1,
                            129, 133, 128, -1, 92, 81, 91, -1,
                            98, 94, 91, -1, 91, 94, 93, -1,
                            91, 93, 92, -1, 122, 109, 119, -1,
                            117, 120, 119, -1, 119, 120, 121, -1,
                            119, 121, 122, -1, 114, 118, 115, -1,
                            106, 112, 115, -1, 115, 112, 113, -1,
                            115, 113, 114, -1, 105, 106, 107, -1,
                            99, 103, 107, -1, 107, 103, 104, -1,
                            107, 104, 105, -1, 83, 100, 97, -1,
                            118, 117, 109, -1, 97, 98, 83, -1,
                            83, 98, 91, -1, 83, 91, 81, -1,
                            99, 107, 106, -1, 106, 115, 118, -1,
                            117, 119, 109, -1, 127, 129, 128, -1,
                            130, 128, 132, -1, 130, 132, 134, -1,
                            134, 132, 133, -1, 131, 133, 129, -1,
                            100, 130, 134, -1, 134, 109, 100, -1,
                            109, 134, 118, -1, 118, 134, 133, -1,
                            133, 106, 118, -1, 131, 106, 133, -1,
                            131, 99, 106, -1, 99, 131, 85, -1,
                            85, 131, 129, -1, 129, 80, 85, -1,
                            80, 129, 127, -1, 127, 81, 80, -1,
                            81, 127, 128, -1, 128, 83, 81, -1,
                            130, 83, 128, -1, 130, 100, 83, -1,
                            153, 138, 160, -1, 143, 151, 138, -1,
                            138, 151, 160, -1, 210, 216, 198, -1,
                            182, 173, 184, -1, 184, 173, 177, -1,
                            200, 202, 210, -1, 210, 202, 216, -1,
                            184, 177, 200, -1, 200, 177, 202, -1,
                            198, 180, 182, -1, 182, 180, 173, -1,
                            216, 193, 198, -1, 198, 193, 180, -1,
                            201, 204, 211, -1, 211, 217, 199, -1,
                            211, 204, 217, -1, 183, 175, 174, -1,
                            183, 174, 185, -1, 185, 174, 181, -1,
                            185, 181, 201, -1, 201, 181, 204, -1,
                            217, 194, 199, -1, 199, 194, 183, -1,
                            183, 194, 175, -1, 200, 190, 184, -1,
                            184, 190, 182, -1, 182, 190, 188, -1,
                            182, 188, 195, -1, 182, 195, 198, -1,
                            198, 195, 208, -1, 198, 208, 210, -1,
                            210, 208, 206, -1, 210, 206, 200, -1,
                            200, 206, 190, -1, 201, 203, 185, -1,
                            185, 203, 189, -1, 185, 189, 183, -1,
                            183, 189, 196, -1, 183, 196, 199, -1,
                            199, 196, 209, -1, 199, 209, 211, -1,
                            211, 209, 203, -1, 211, 203, 201, -1,
                            149, 139, 161, -1, 161, 139, 154, -1,
                            144, 139, 149, -1, 153, 160, 152, -1,
                            152, 160, 159, -1, 152, 141, 153, -1,
                            153, 141, 138, -1, 137, 138, 141, -1,
                            143, 138, 142, -1, 142, 138, 137, -1,
                            148, 151, 143, -1, 148, 143, 142, -1,
                            148, 159, 151, -1, 151, 159, 160, -1,
                            186, 168, 193, -1, 193, 168, 180, -1,
                            180, 168, 163, -1, 180, 163, 173, -1,
                            173, 163, 165, -1, 173, 165, 177, -1,
                            177, 165, 178, -1, 177, 178, 202, -1,
                            202, 178, 207, -1, 202, 207, 216, -1,
                            216, 207, 186, -1, 216, 186, 193, -1,
                            194, 179, 166, -1, 194, 166, 175, -1,
                            175, 166, 164, -1, 175, 164, 174, -1,
                            174, 164, 167, -1, 174, 167, 181, -1,
                            181, 167, 187, -1, 181, 187, 204, -1,
                            204, 187, 205, -1, 204, 205, 217, -1,
                            217, 205, 197, -1, 217, 197, 194, -1,
                            194, 197, 179, -1, 188, 190, 171, -1,
                            203, 209, 221, -1, 221, 209, 222, -1,
                            171, 190, 221, -1, 221, 190, 206, -1,
                            221, 206, 208, -1, 195, 188, 189, -1,
                            172, 189, 171, -1, 189, 188, 171, -1,
                            208, 203, 221, -1, 222, 196, 172, -1,
                            222, 209, 196, -1, 172, 196, 189, -1,
                            203, 208, 195, -1, 203, 195, 189, -1,
                            221, 222, 218, -1, 218, 222, 219, -1,
                            145, 144, 149, -1, 145, 149, 150, -1,
                            145, 140, 144, -1, 144, 140, 139, -1,
                            154, 139, 155, -1, 155, 139, 140, -1,
                            155, 162, 154, -1, 154, 162, 161, -1,
                            162, 150, 161, -1, 161, 150, 149, -1,
                            171, 191, 172, -1, 172, 191, 192, -1,
                            221, 218, 156, -1, 221, 156, 171, -1,
                            146, 148, 142, -1, 135, 137, 141, -1,
                            135, 141, 157, -1, 157, 141, 152, -1,
                            169, 159, 146, -1, 146, 159, 148, -1,
                            146, 142, 135, -1, 135, 142, 137, -1,
                            157, 152, 169, -1, 169, 152, 159, -1,
                            136, 135, 158, -1, 158, 135, 157, -1,
                            219, 205, 218, -1, 167, 164, 158, -1,
                            163, 157, 156, -1, 163, 156, 165, -1,
                            205, 186, 207, -1, 205, 207, 218, -1,
                            219, 197, 205, -1, 156, 178, 165, -1,
                            157, 163, 158, -1, 158, 163, 168, -1,
                            158, 164, 166, -1, 179, 197, 219, -1,
                            207, 178, 218, -1, 186, 205, 187, -1,
                            167, 158, 168, -1, 218, 178, 156, -1,
                            166, 179, 158, -1, 158, 179, 219, -1,
                            187, 167, 168, -1, 186, 187, 168, -1,
                            233, 220, 232, -1, 232, 220, 223, -1,
                            192, 215, 233, -1, 233, 215, 225, -1,
                            233, 225, 220, -1, 220, 225, 224, -1,
                            232, 223, 212, -1, 232, 212, 191, -1,
                            191, 213, 192, -1, 192, 213, 215, -1,
                            214, 213, 191, -1, 214, 191, 212, -1,
                            220, 224, 213, -1, 220, 213, 214, -1,
                            136, 147, 146, -1, 136, 146, 135, -1,
                            192, 162, 172, -1, 170, 162, 192, -1,
                            170, 192, 233, -1, 170, 233, 238, -1,
                            155, 158, 219, -1, 155, 219, 172, -1,
                            172, 219, 222, -1, 147, 150, 170, -1,
                            170, 150, 162, -1, 162, 155, 172, -1,
                            147, 145, 150, -1, 136, 140, 147, -1,
                            147, 140, 145, -1, 158, 155, 136, -1,
                            136, 155, 140, -1, 233, 232, 238, -1,
                            238, 232, 237, -1, 191, 176, 232, -1,
                            232, 176, 237, -1, 171, 156, 176, -1,
                            171, 176, 191, -1, 156, 157, 176, -1,
                            176, 157, 169, -1, 234, 220, 229, -1,
                            229, 220, 214, -1, 229, 214, 226, -1,
                            226, 214, 212, -1, 226, 212, 230, -1,
                            230, 212, 223, -1, 230, 223, 236, -1,
                            236, 223, 220, -1, 236, 220, 234, -1,
                            231, 215, 228, -1, 228, 215, 213, -1,
                            228, 213, 227, -1, 227, 213, 224, -1,
                            227, 224, 235, -1, 235, 224, 225, -1,
                            235, 225, 231, -1, 231, 225, 215, -1,
                            169, 146, 147, -1, 170, 231, 228, -1,
                            170, 228, 147, -1, 147, 228, 227, -1,
                            147, 227, 169, -1, 169, 234, 229, -1,
                            169, 229, 226, -1, 169, 226, 176, -1,
                            235, 231, 238, -1, 169, 227, 234, -1,
                            226, 230, 176, -1, 176, 230, 237, -1,
                            237, 230, 236, -1, 237, 236, 234, -1,
                            237, 235, 238, -1, 231, 170, 238, -1,
                            234, 227, 237, -1, 237, 227, 235, -1,
                            246, 247, 250, -1, 257, 255, 256, -1,
                            255, 257, 249, -1, 246, 250, 249, -1,
                            249, 250, 255, -1, 249, 241, 239, -1,
                            249, 239, 246, -1, 246, 239, 251, -1,
                            251, 239, 243, -1, 251, 243, 254, -1,
                            254, 243, 248, -1, 254, 248, 257, -1,
                            257, 248, 245, -1, 257, 245, 249, -1,
                            249, 245, 241, -1, 253, 244, 240, -1,
                            253, 240, 247, -1, 247, 240, 242, -1,
                            247, 242, 250, -1, 250, 242, 255, -1,
                            255, 242, 252, -1, 255, 252, 256, -1,
                            256, 252, 244, -1, 256, 244, 253, -1,
                            248, 252, 245, -1, 239, 242, 240, -1,
                            242, 239, 241, -1, 245, 252, 242, -1,
                            242, 241, 245, -1, 265, 263, 260, -1,
                            260, 263, 259, -1, 272, 271, 265, -1,
                            272, 265, 269, -1, 269, 265, 260, -1,
                            269, 260, 267, -1, 273, 272, 268, -1,
                            268, 272, 269, -1, 267, 266, 268, -1,
                            267, 268, 269, -1, 266, 267, 261, -1,
                            261, 267, 260, -1, 259, 258, 260, -1,
                            260, 258, 261, -1, 258, 259, 262, -1,
                            262, 259, 263, -1, 265, 264, 262, -1,
                            265, 262, 263, -1, 271, 270, 265, -1,
                            265, 270, 264, -1, 272, 273, 270, -1,
                            272, 270, 271, -1, 268, 258, 273, -1,
                            273, 258, 262, -1, 268, 266, 258, -1,
                            258, 266, 261, -1, 262, 264, 273, -1,
                            273, 264, 270, -1, 281, 279, 276, -1,
                            276, 279, 275, -1, 289, 287, 281, -1,
                            289, 281, 284, -1, 284, 281, 276, -1,
                            284, 276, 283, -1, 288, 289, 285, -1,
                            285, 289, 284, -1, 283, 282, 284, -1,
                            284, 282, 285, -1, 282, 283, 277, -1,
                            277, 283, 276, -1, 275, 274, 276, -1,
                            276, 274, 277, -1, 274, 275, 278, -1,
                            278, 275, 279, -1, 281, 280, 278, -1,
                            281, 278, 279, -1, 287, 286, 281, -1,
                            281, 286, 280, -1, 289, 288, 286, -1,
                            289, 286, 287, -1, 280, 286, 288, -1,
                            277, 274, 282, -1, 282, 274, 285, -1,
                            285, 274, 288, -1, 288, 274, 278, -1,
                            288, 278, 280 ]
                        ccw TRUE
                        solid FALSE
                        convex TRUE
                        creaseAngle 0

                      }

                    }

                }

            }

        },
          
        Group {
          children 
            Transform {
              translation 0.00029063199 -0.1956201 0.001319528
              rotation -1.1175859e-007 8.9406917e-008 -1  1.5707964
              scale 1 1 0.99999994
              scaleOrientation 0.70710343 0.70711011 -3.8938605e-008  0.7853983

            }

        } ]

    }

}
